{
    // 关闭自动更新
    "update.channel": "none",
    // 配色、图标、字体以及其他外观配置项
    "editor.tabSize": 2,
    "editor.wordWrap": "on",
    "workbench.colorTheme": "Solarized Dark",
    "workbench.iconTheme": "vscode-great-icons",
    "editor.cursorStyle": "block",
    "editor.fontFamily": "Fira Code",
    "editor.fontLigatures": true,
    "editor.fontSize": 15,
    "editor.lineHeight": 24,
    "editor.lineNumbers": "on",
    "editor.minimap.enabled": false,
    "editor.renderIndentGuides": false,
    "editor.rulers": [
      120
    ],
    "editor.snippetSuggestions": "top",
    "files.autoSave": "afterDelay",
    "liveServer.settings.donotShowInfoMsg": true,
    // emmet
    "emmet.triggerExpansionOnTab": true,
    "emmet.syntaxProfiles": {
      "vue-html": "html",
      "javascript": "javascriptreact"
    },
    "workbench.startupEditor": "none",
    // git
    "git.ignoreMissingGitWarning": true,
   
    "git.path": " D:/Environment/git/Git/cmd/git.exe",
    "git.autofetch": true,
    "git.confirmSync": false,
    "window.menuBarVisibility": "default", // 自动拉取
    // 浏览器
    "view-in-browser.customBrowser": "chrome",
    "liveServer.settings.donotVerifyTags": true,
    "workbench.sideBar.location": "left",
    "git.enableSmartCommit": true,
    // "view-in-browser.customBrowser": "iexplore",
    // "view-in-browser.customBrowser": "mozilla",
    "svn.path": "C:/Program Files/TortoiseSVN/bin/TortoiseProc.exe",
  
  }